<svg width="32" height="32" viewBox="0 0 32 32" fill="none" xmlns="http://www.w3.org/2000/svg">
<path d="M16 1.5C24.0081 1.5 30.5 7.99187 30.5 16C30.5 24.0081 24.0081 30.5 16 30.5C7.99187 30.5 1.5 24.0081 1.5 16C1.5 7.99187 7.99187 1.5 16 1.5Z" stroke="#2F2C26" stroke-width="3"/>
<path d="M18.2857 16.381L14.2857 20.01L14.2857 12.7519L18.2857 16.381Z" fill="#2F2C26"/>
</svg>
