<?xml version="1.0" encoding="UTF-8"?>
<svg width="28px" height="20px" viewBox="0 0 28 20" version="1.1" xmlns="http://www.w3.org/2000/svg" xmlns:xlink="http://www.w3.org/1999/xlink">
    <!-- Generator: Sketch 60 (88103) - https://sketch.com -->
    <title>Shape</title>
    <desc>Created with Sketch.</desc>
    <g id="Page-1" stroke="none" stroke-width="1" fill="none" fill-rule="evenodd">
        <g id="Zendesk-DV1" transform="translate(-485.000000, -1190.000000)" fill="#2F2C26" fill-rule="nonzero">
            <g id="Group-16" transform="translate(57.000000, 1076.000000)">
                <g id="Group-15" transform="translate(428.000000, 108.000000)">
                    <g id="Group-12">
                        <path d="M0.333333333,6 C0.148666666,6 0,6.17573667 0,6.39401957 L0,8.3394912 L14,20 L28,8.3394912 L28,6.39401957 C28,6.17573667 27.8513333,6 27.6666667,6 L0.333333333,6 Z M0,10 L0,25.591381 C0,25.8177559 0.148666666,26 0.333333333,26 L27.6666667,26 C27.8513333,26 28,25.8177559 28,25.591381 L28,10 L14.3854,21.7605779 C14.1544985,21.9610862 13.8455015,21.9610862 13.6146,21.7605779 L0,10 Z" id="Shape"></path>
                    </g>
                </g>
            </g>
        </g>
    </g>
</svg>