<svg width="15" height="13" viewBox="0 0 15 13" fill="none" xmlns="http://www.w3.org/2000/svg">
<path d="M14.2773 7.9695V13H11.2536V8.30672C11.2536 7.12645 10.816 6.32386 9.72026 6.32386C9.37892 6.32579 9.04654 6.42929 8.76861 6.6202C8.49069 6.8111 8.2808 7.08009 8.16769 7.39032C8.08987 7.61943 8.05577 7.86021 8.06704 8.10102V13H5.0389C5.0389 13 5.07916 5.05169 5.0389 4.23225H8.06354V5.47491C8.05741 5.48502 8.04866 5.4943 8.04341 5.50357H8.06354V5.47491C8.33751 5.01623 8.73673 4.63863 9.21781 4.38314C9.6989 4.12765 10.2435 4.00402 10.7924 4.0257C12.7843 4.0257 14.2773 5.27932 14.2773 7.97287V7.9695ZM1.87249 0.000118707C1.45468 -0.0049121 1.05192 0.150141 0.752795 0.431169C0.45367 0.712198 0.28269 1.09618 0.277467 1.49865C0.272244 1.90111 0.433207 2.28909 0.724946 2.57723C1.01668 2.86538 1.4153 3.03008 1.83311 3.03511H1.84973C2.05661 3.03638 2.26172 2.99839 2.45335 2.92331C2.64499 2.84822 2.81939 2.73751 2.96661 2.5975C3.11383 2.45749 3.23097 2.29092 3.31136 2.10729C3.39175 1.92367 3.43381 1.72659 3.43513 1.52731C3.43645 1.32803 3.39701 1.13045 3.31907 0.945851C3.24112 0.761252 3.12619 0.593251 2.98084 0.451438C2.83549 0.309625 2.66257 0.19678 2.47195 0.119342C2.28133 0.0419044 2.07674 0.00139188 1.86986 0.000118707H1.87249ZM0.339167 12.9992H3.36555V4.2314H0.339167V12.9992Z" fill="#2F2C26"/>
</svg>
