<svg width="151" height="42" viewBox="0 0 151 42" fill="none" xmlns="http://www.w3.org/2000/svg">
<path d="M1.00644 30.4785C1.51717 28.5708 1.98283 26.9485 1.98283 23.7189V19.3777C1.98283 16.5386 1.397 14.9163 0 13.2489V13.0987L8.1867 10.8455V23.7339C8.1867 26.9185 8.50215 28.6309 9.11803 30.4936V30.5687H1.00644V30.4785V30.4785ZM4.50644 8.50214C2.64378 8.50214 1.17167 6.98498 1.17167 5.12232C1.17167 3.30472 2.64378 1.78755 4.50644 1.78755C6.3691 1.78755 7.91631 3.30472 7.91631 5.12232C7.91631 6.98498 6.3691 8.50214 4.50644 8.50214Z" fill="#2F2C26"/>
<path d="M31.2597 34.1588C33.3627 34.3541 37.0429 34.3991 38.6803 31.6352L33.0022 17.5451C31.4549 13.8197 30.8992 12.6931 30.058 11.7167V11.6416H39.5665V11.7167C38.8605 12.603 38.5601 15.1717 39.6116 17.7704L41.9399 23.824L44.5086 17.6953C45.6352 14.9013 44.8992 12.603 44.118 11.7167V11.6416H49.0901V11.7167C47.7683 13.1588 46.8069 14.3905 45.485 17.5751L40.2425 30.118C37.1331 37.4485 34.8498 38.2747 31.2747 39.2811V34.1588H31.2597Z" fill="#2F2C26"/>
<path d="M46.7918 21.1202C46.7918 15.7275 51.5236 11.0257 57.2318 11.0257C62.9399 11.0257 67.6717 15.7275 67.6717 21.1202C67.6717 26.5129 62.9399 31.1395 57.2318 31.1395C51.5236 31.1395 46.7918 26.5129 46.7918 21.1202ZM61.2425 21.1202C61.2425 15.6073 59.9957 11.7618 57.2468 11.7618C54.4528 11.7618 53.2511 15.6073 53.2511 21.1202C53.2511 26.588 54.4978 30.4034 57.2468 30.4034C59.9957 30.4034 61.2425 26.588 61.2425 21.1202Z" fill="#2F2C26"/>
<path d="M68.6481 17.5451C67.3262 14.1652 66.5901 12.8433 65.5837 11.7167V11.6416H75.2575V11.7167C74.5515 12.603 74.3262 15.0966 75.2575 17.5L77.6309 23.6738L80.0794 17.8455C81.3262 14.9313 80.4699 12.5279 79.839 11.7167V11.6416H84.691V11.7167C83.3691 13.1588 82.4378 14.3605 81.0858 17.5751L75.5279 30.809H74.0107L68.6481 17.5451Z" fill="#2F2C26"/>
<path d="M92.6373 28.1051C91.5558 29.6974 89.6931 31.1395 87.1996 31.1395C84.8262 31.1395 82.8133 29.9378 82.8133 27.2639C82.8133 23.073 88.1309 21.2403 92.5172 20.309V17.9056C92.5172 15.6223 91.5858 14.5708 88.7918 14.5708C87.2747 14.5708 85.4871 14.8863 83.7446 15.6223L83.5944 15.3519C85.4571 13.0386 88.4764 11.0257 92.7124 11.0257C96.9034 11.0257 98.7661 13.0386 98.7661 16.118V26.0923C98.7661 27.0236 99.1867 27.8348 100.433 27.8348C100.854 27.8348 101.41 27.7146 101.906 27.3691L101.981 27.5193C101.44 28.7961 100.073 31.0944 96.7833 31.0944C94.4249 31.0944 92.9828 29.8476 92.6373 28.1051ZM92.5172 27.3691V21.1202C89.7532 21.8562 88.2811 23.4034 88.2811 25.236C88.2811 26.7532 89.1674 27.7596 90.8798 27.7596C91.5107 27.7596 92.0515 27.6395 92.5172 27.3691Z" fill="#2F2C26"/>
<path d="M33.3326 27.3691C32.8219 27.7146 32.2811 27.8348 31.8605 27.8348C30.6137 27.8348 30.1931 27.0236 30.1931 26.0923V16.4184C30.1931 13.1137 27.7897 11.0257 24.3648 11.0257C20.9099 11.0257 18.897 13.0837 17.8455 14.7511L17.6953 14.706V10.8305L9.65878 13.0837V13.1588C11.0558 14.8262 11.5966 16.4184 11.5966 19.3326L11.6416 23.7189C11.6416 26.9785 11.2961 28.6159 10.6652 30.4785V30.5536H18.7768V30.4785C18.1609 28.5708 17.8455 26.9485 17.8455 23.7189V15.8326C18.5815 14.7811 19.8283 13.9249 21.2554 13.9249C23.118 13.9249 23.9292 15.1266 23.9292 16.794V26.8133C23.9292 27.1438 23.9893 27.8197 24.0493 28.0901C24.3948 29.8326 25.8369 31.0794 28.2103 31.0794C31.515 31.0794 32.8669 28.7961 33.4077 27.5043L33.3326 27.3691Z" fill="#2F2C26"/>
<path d="M129.2 20.97V0H108.185C108.185 11.5815 117.603 21 129.185 21H108.185V42C119.781 42 129.2 32.5966 129.2 21H150.215V0C138.633 0 129.215 9.40344 129.2 20.97Z" fill="#EE3C15"/>
</svg>
