<svg width="13" height="13" viewBox="0 0 13 13" fill="none" xmlns="http://www.w3.org/2000/svg">
<path d="M10.8938 10.281V2.99898L1.49983 12.393L0.377832 11.271L9.77183 1.87698H2.48983V0.402975H12.4338V10.281H10.8938Z" fill="#2F2C26"/>
</svg>
