<svg width="42" height="42" viewBox="0 0 42 42" fill="none" xmlns="http://www.w3.org/2000/svg">
<path d="M40.9998 21C40.9998 32.0457 32.0455 41 20.9998 41C9.95406 41 0.999756 32.0457 0.999756 21C0.999756 9.95431 9.95406 1 20.9998 1C32.0455 1 40.9998 9.95431 40.9998 21Z" stroke="white" stroke-width="2"/>
<path d="M21.4988 25L16.7356 19.75L26.2619 19.75L21.4988 25Z" fill="white"/>
</svg>
