<svg width="49" height="48" viewBox="0 0 49 48" fill="none" xmlns="http://www.w3.org/2000/svg">
<path d="M24.8 48C38.0549 48 48.8 37.2548 48.8 24C48.8 10.7452 38.0549 0 24.8 0C11.5452 0 0.800049 10.7452 0.800049 24C0.800049 37.2548 11.5452 48 24.8 48Z" fill="#2F2C26"/>
<path d="M32.8 19.61C32.1943 19.8498 31.5583 20.0046 30.91 20.07C31.5771 19.7327 32.0942 19.1586 32.36 18.46C31.7042 18.8031 30.9992 19.0426 30.27 19.17C29.757 18.6899 29.1066 18.3822 28.41 18.29C27.7023 18.1821 26.9785 18.2865 26.33 18.59C25.7018 18.8799 25.1931 19.378 24.89 20C24.5932 20.5693 24.5183 21.2286 24.68 21.85C23.3848 21.8024 22.1112 21.5036 20.93 20.97C19.7956 20.4624 18.7753 19.7311 17.93 18.82C17.7279 19.1223 17.5899 19.4629 17.5245 19.8206C17.4591 20.1784 17.4678 20.5457 17.55 20.9C17.766 21.6426 18.2604 22.2731 18.93 22.66C18.4127 22.644 17.9048 22.5179 17.44 22.29C17.4491 22.976 17.717 23.6332 18.19 24.13C18.6961 24.6579 19.3589 25.0086 20.08 25.13C19.5911 25.2416 19.0854 25.2585 18.59 25.18C18.8193 25.7958 19.2444 26.3192 19.8 26.67C20.3673 27.0347 21.0258 27.2322 21.7 27.24C20.2641 28.2162 18.5245 28.6422 16.8 28.44C18.2469 29.2486 19.8668 29.698 21.5235 29.7502C23.1802 29.8024 24.8251 29.4559 26.32 28.74C27.7456 28.0681 28.9698 27.0336 29.87 25.74C30.7112 24.4966 31.1637 23.0312 31.17 21.53C31.17 21.4 31.17 21.28 31.17 21.15C31.8002 20.7371 32.3521 20.2157 32.8 19.61Z" fill="white"/>
</svg>
