<?xml version="1.0" encoding="UTF-8"?>
<svg width="32px" height="32px" viewBox="0 0 32 32" version="1.1" xmlns="http://www.w3.org/2000/svg" xmlns:xlink="http://www.w3.org/1999/xlink">
    <!-- Generator: Sketch 60 (88103) - https://sketch.com -->
    <title>Shape</title>
    <desc>Created with Sketch.</desc>
    <g id="Page-1" stroke="none" stroke-width="1" fill="none" fill-rule="evenodd">
        <g id="Zendesk-DV1" transform="translate(-815.000000, -1186.000000)" fill="#2F2C26">
            <g id="Group-16" transform="translate(57.000000, 1076.000000)">
                <g id="Group-15" transform="translate(428.000000, 108.000000)">
                    <g id="Group-14" transform="translate(330.000000, 2.000000)">
                        <path d="M16,0 C7.15632871,0 0,7.15235732 0,16 C0,19.3366847 1.01754462,22.4230836 2.82500024,25.0750026 C2.96128634,25.276977 2.99809823,25.5300512 2.92500024,25.7624823 L1.30000022,31.2000003 L6.6250003,29.362481 C6.85556542,29.2857238 7.10851998,29.3179254 7.31250031,29.450001 C9.80671635,31.0684003 12.7926244,32 16,32 C24.847861,32 32,24.8478427 32,16 C32,7.15211732 24.847861,0 16,0 L16,0 Z M9.45000034,6.97499738 L12.3625004,11.7875156 L11.1500004,12.9875151 C10.8962533,13.2435412 10.8450698,13.6376458 11.0250004,13.9499948 C12.8753288,17.1542456 15.0676728,19.6470846 18.1375005,21.0000041 C18.4385696,21.1337447 18.79084,21.0692525 19.0250005,20.8375242 L20.3125005,19.5500047 L25.0125006,22.4875236 C24.492065,23.6588031 23.8136006,24.3561629 23.0375005,24.7624827 C22.1385285,25.2332025 21.0405249,25.3223225 19.7875005,25.0624826 C17.2814569,24.5428428 14.2543488,22.5732835 11.7875004,20.0500045 C9.32065274,17.5267654 7.41166031,14.4585146 6.9250003,11.9624755 C6.6816723,10.714476 6.7891683,9.63967639 7.25000031,8.7875167 C7.64679231,8.05379698 8.32079232,7.42563722 9.45000034,6.97499738 L9.45000034,6.97499738 Z" id="Shape"></path>
                    </g>
                </g>
            </g>
        </g>
    </g>
</svg>